{
  "section_2": {
    "file3": {
      "hello": [
        "y",
        "x",
        "z=1",
        "**kwargs"
      ],
      "bonjour": [
        "x"
      ]
    },
    "file4": {
      "goodbye": [
        "x",
        "y",
        "z"
      ]
    }
  },
  "section_1": {
    "file1": {
      "hello": [
        "y",
        "x",
        "z=1",
        "**kwargs"
      ],
      "bonjour": [
        "x"
      ]
    },
    "file2": {
      "goodbye": [
        "x",
        "y",
        "z"
      ]
    }
  }
}